module gitlab.com/bassforce86/cloudflare-cli

go 1.22.0

require (
	github.com/gdamore/tcell/v2 v2.6.1-0.20231203215052-2917c3801e73
	github.com/rivo/tview v0.0.0-20240204151237-861aa94d61c8
	golang.org/x/sync v0.6.0
)

require (
	github.com/gdamore/encoding v1.0.0 // indirect
	github.com/lucasb-eyer/go-colorful v1.2.0 // indirect
	github.com/mattn/go-runewidth v0.0.14 // indirect
	github.com/rivo/uniseg v0.4.7-0.20240127222946-601bbb3750c2 // indirect
	golang.org/x/sys v0.11.0 // indirect
	golang.org/x/term v0.9.0 // indirect
	golang.org/x/text v0.12.0 // indirect
)
